<svg width="150" height="80" viewBox="0 0 150 80" fill="none" xmlns="http://www.w3.org/2000/svg">
<g clip-path="url(#clip0)">
<path fill-rule="evenodd" clip-rule="evenodd" d="M111.882 52.7363H129.808C131.735 52.7363 131.708 55.102 130.145 55.749C129.418 56.0498 128.772 56.2624 128.033 56.5203L115.715 60.8872C110.237 62.7703 109.964 68.6406 112.32 71.2324C113.291 72.3005 114.694 73.111 116.209 73.111H135.783V68.1717H118.475C117.249 68.1717 116.003 67.9285 116.003 66.731C116.003 65.0122 118.832 64.4423 121.128 63.618C123.145 62.8939 125.332 62.178 127.335 61.3801C128.28 61.0042 129.323 60.6264 130.347 60.2718C131.353 59.9233 132.638 59.5497 133.432 59.0312C138.279 55.8638 137.365 47.5912 130.014 47.5912H111.882V52.7363H111.882Z" fill="black"/>
<path fill-rule="evenodd" clip-rule="evenodd" d="M14.8351 51.9131V73.111H20.1923V53.3537C20.1923 52.8795 20.3356 52.7363 20.8105 52.7363H30.0824C32.3988 52.7363 34.4307 53.5024 35.5975 55.048C36.3744 56.0768 36.6757 57.5182 36.6757 58.9104V73.111H42.0328V58.9104C42.0328 51.4613 37.082 47.5912 29.8762 47.5912H18.1317C15.5667 47.5912 14.835 49.3529 14.835 51.9131H14.8351Z" fill="black"/>
<path fill-rule="evenodd" clip-rule="evenodd" d="M52.5413 47.5917H49.0385V52.7368H52.5413V65.4966C52.5413 74.3725 58.9255 73.1114 64.6979 73.1114V68.378C61.3874 68.378 57.8984 69.0026 57.8984 65.4966V52.7368H64.904V47.5917H57.8984V41.6234H52.5413V47.5917Z" fill="black"/>
<path fill-rule="evenodd" clip-rule="evenodd" d="M76.6485 76.1984C76.6485 78.2076 76.3691 79.0797 77.2667 79.0797H99.3133C100.211 79.0797 99.9314 78.2076 99.9314 76.1984C99.9314 75.7242 99.788 75.581 99.3133 75.581H77.2667C76.7919 75.581 76.6485 75.7242 76.6485 76.1984Z" fill="black"/>
<path fill-rule="evenodd" clip-rule="evenodd" d="M144.643 48.2086V73.111H150V47.5912H145.261C144.786 47.5912 144.643 47.7345 144.643 48.2087V48.2086Z" fill="black"/>
<path fill-rule="evenodd" clip-rule="evenodd" d="M144.643 38.5362V44.093H150V38.5362C150 37.491 148.107 37.9187 145.261 37.9187C144.786 37.9187 144.643 38.0619 144.643 38.5362Z" fill="url(#paint0_linear)"/>
<path fill-rule="evenodd" clip-rule="evenodd" d="M0 48.2086V73.111H5.35714V47.5912H0.618217C0.143464 47.5912 0 47.7345 0 48.2087L0 48.2086Z" fill="black"/>
<path fill-rule="evenodd" clip-rule="evenodd" d="M0 36.4017V48.4975H5.35714V36.4017C5.35714 34.1265 3.46466 35.0577 0.618217 35.0577C0.143464 35.0577 0 35.3693 0 36.4017H0Z" fill="black"/>
<path fill-rule="evenodd" clip-rule="evenodd" d="M96.0163 34.0081C96.0163 36.0177 99.1987 35.4488 101.991 35.4488L103.046 38.1C103.828 40.0887 104.499 39.7264 108.173 40.5939C109.551 40.9193 112.5 42.0526 112.5 39.9764C112.5 38.446 107.64 38.2718 105.983 37.6359C105.111 37.3014 104.765 35.9926 104.289 34.8005C103.311 32.3514 102.25 32.9789 97.0463 32.9789C96.5659 32.9789 96.0161 33.5281 96.0161 34.008L96.0163 34.0081Z" fill="url(#paint1_linear)"/>
<path fill-rule="evenodd" clip-rule="evenodd" d="M80.1508 61.9972C80.1508 57.5004 79.3641 52.7334 82.6152 50.2583C88.07 46.1057 96.4282 49.3661 96.4282 55.2057C96.4282 60.2508 97.2529 64.2718 93.9331 66.9139C90.6536 69.5239 85.8393 69.3493 82.7344 67.0312C81.5085 66.1159 80.1507 64.0447 80.1507 61.9972H80.1508ZM75.2058 55.2056C75.2058 59.1394 74.7067 63.2003 76.4366 66.7359C76.8029 67.4846 77.032 67.8291 77.5587 68.4964C81.5527 73.556 88.4667 74.7063 93.6666 72.6159C97.6014 71.0339 101.373 66.8107 101.373 61.997C101.373 54.8175 102.223 51.8906 97.5109 47.1267C93.9894 43.5666 87.4077 42.7793 82.9124 44.5866C81.2889 45.2392 80.3314 46.0344 79.1157 46.9684C77.1167 48.5044 75.2057 52.294 75.2057 55.2054L75.2058 55.2056Z" fill="url(#paint2_linear)"/>
<path fill-rule="evenodd" clip-rule="evenodd" d="M87.7748 29.8921C91.4917 29.8921 92.5027 36.4439 89.4381 38.5519C86.7624 40.3923 83.7962 36.9322 84.7278 33.0239C85.0358 31.732 86.1728 29.8921 87.7748 29.8921ZM80.5633 34.4197C80.5633 38.6688 83.6099 42.8577 87.5689 42.8577C94.8673 42.8577 97.339 33.7872 93.1649 28.6244C88.6882 23.0873 80.5633 27.0118 80.5633 34.4197Z" fill="url(#paint3_linear)"/>
<path fill-rule="evenodd" clip-rule="evenodd" d="M83.6536 18.9845C83.6536 14.764 92.5133 14.8979 92.5133 18.9845C92.5133 22.9697 83.6536 22.6501 83.6536 18.9845ZM79.7388 18.367C79.7388 20.7835 80.4589 22.5357 82.4112 23.9298C88.2693 28.1132 96.4283 24.51 96.4283 19.1903C96.4283 15.8291 94.2626 13.5642 91.6655 12.6284C88.5613 11.5098 84.8655 11.8156 82.3815 13.8038C81.2438 14.7146 79.7386 16.4074 79.7386 18.3671L79.7388 18.367Z" fill="url(#paint4_linear)"/>
<path fill-rule="evenodd" clip-rule="evenodd" d="M72.3215 24.9529C72.3215 30.4694 72.3094 29.5482 77.9102 31.5191C78.977 31.8945 80.151 32.2839 80.151 30.5097C80.151 29.3378 75.972 28.2663 74.9999 28.04L74.6906 24.4387C74.4159 23.2017 73.6049 22.8915 72.6694 22.3416C71.7387 21.7945 71.0016 21.3456 70.0938 20.798C69.2974 20.3178 68.3104 19.6136 67.3765 19.3962C64.8223 21.6137 67.4266 21.6789 72.3215 24.9529Z" fill="url(#paint5_linear)"/>
<path fill-rule="evenodd" clip-rule="evenodd" d="M64.0796 41.211C64.0796 41.7669 64.1779 41.7786 64.2856 42.24C66.3652 42.7373 68.1562 41.6362 71.0639 40.7783C73.0421 40.1947 73.4494 39.1795 74.1756 36.0659C75.2241 36.0659 76.3092 35.9352 77.4162 35.8042C79.2351 35.5888 79.9447 35.647 79.9447 34.2137C79.9447 32.5595 76.5918 33.5132 75.2057 33.5962C72.1459 33.7794 72.4655 33.7163 71.6278 36.1968C70.6871 38.9829 71.0799 38.3708 66.0048 39.8415C65.1369 40.0929 64.0794 40.1996 64.0794 41.2112L64.0796 41.211Z" fill="url(#paint6_linear)"/>
<path fill-rule="evenodd" clip-rule="evenodd" d="M95.6042 38.5356C95.6042 39.4332 97.0249 40.027 97.6528 40.3997C98.4857 40.8939 99.2408 41.3548 100.137 41.8285C100.137 45.2872 98.7345 45.7611 100.91 47.6419L103.965 50.3533C104.715 50.9335 104.937 51.7072 105.906 51.7072C106.403 51.7072 107.143 50.9679 107.143 50.4723C107.143 49.677 102.931 46.4207 102.198 45.3272C102.279 44.3492 102.518 43.1868 102.686 42.087C102.964 40.2677 101.761 40.0741 99.146 38.4968C98.2746 37.9712 95.6044 36.2309 95.6044 38.5356H95.6042Z" fill="url(#paint7_linear)"/>
<path fill-rule="evenodd" clip-rule="evenodd" d="M100.55 27.422L96.8049 29.0328C96.099 29.3142 95.4943 29.5375 95.5062 30.2727C95.5488 32.9078 99.4334 30.4197 101.495 29.6013C103.259 28.9008 102.596 29.1038 102.816 28.6569L103.022 24.1291C104.052 23.5845 108.585 20.548 108.585 19.8072C108.585 19.11 108.317 18.5703 107.685 18.4366C106.903 18.2711 104.503 20.2589 103.391 20.9991C102.839 21.3668 102.628 21.5738 102.073 21.9465C101.527 22.3132 101.209 22.4213 100.874 23.0127C100.3 24.0267 100.549 25.9902 100.549 27.422H100.55Z" fill="url(#paint8_linear)"/>
<path fill-rule="evenodd" clip-rule="evenodd" d="M74.5877 45.9446C74.5877 46.5289 73.5867 47.2568 73.1965 47.6421L70.2691 50.9153C70.0701 51.3764 70.1985 52.5304 71.4971 52.5304C72.4028 52.5304 75.2371 48.8872 75.8725 48.2569C78.2549 45.8941 76.4421 45.2921 76.4421 42.2402C76.997 42.0922 77.1912 41.898 77.6232 41.5676C79.4127 40.1986 79.9274 40.3302 80.769 38.7415C80.026 37.3389 79.6783 37.1139 78.4362 38.0578C75.8234 40.043 73.4588 40.7703 73.9097 42.6883C74.1147 43.5606 74.5877 45.0999 74.5877 45.9448V45.9446Z" fill="url(#paint9_linear)"/>
<path fill-rule="evenodd" clip-rule="evenodd" d="M94.9861 0.667914C95.0107 1.7728 95.6346 3.57788 95.9446 4.64987C96.354 6.06476 96.7176 7.2839 97.0465 8.69436C95.947 10.3345 93.7498 11.5345 93.7498 13.0163C93.7498 13.5183 94.2277 14.0453 94.9861 14.0453C95.7748 14.0453 98.3001 10.9037 99.0675 10.09C100.196 8.89367 99.0747 6.77399 98.2381 3.79971C98.0651 3.18488 97.8435 2.42705 97.6456 1.71619C97.0591 -0.390294 96.4166 -0.324795 94.9861 0.668062V0.667914Z" fill="url(#paint10_linear)"/>
<path fill-rule="evenodd" clip-rule="evenodd" d="M76.4423 9.10609C76.4423 9.77975 77.9879 11.3645 78.4543 11.8299C79.3105 12.6842 80.1148 14.2513 81.1813 14.2513C81.9989 14.2513 82.2115 13.4508 82.2115 12.8106C82.2115 12.4338 81.0245 11.1038 80.7208 10.8009C79.7859 9.86837 79.5921 9.35327 78.9148 8.90041L81.1586 1.85393C81.4754 0.662205 80.7834 0.149031 80.1246 0.101314C78.8114 0.00632577 78.3714 2.38859 77.8845 4.16685C77.6499 5.02352 77.4029 5.61835 77.1473 6.51755C76.9523 7.20336 76.4421 8.58447 76.4421 9.10609H76.4423Z" fill="url(#paint11_linear)"/>
<path fill-rule="evenodd" clip-rule="evenodd" d="M92.1017 8.28222C91.9048 8.57593 91.748 8.83882 91.5104 9.13282C89.815 11.2304 91.6575 11.7809 91.6897 11.7809C92.9515 11.7809 94.9864 8.86697 94.9864 7.87071C94.9864 7.43044 92.2739 4.42727 91.3078 4.48017C90.3204 4.53426 89.7847 5.51171 90.3071 6.34719C90.763 7.07657 91.6024 7.53728 92.1018 8.28222H92.1017Z" fill="url(#paint12_linear)"/>
<path fill-rule="evenodd" clip-rule="evenodd" d="M81.3871 8.28212C81.3871 8.70964 82.4262 9.8212 82.7394 10.2243C83.1093 10.7002 83.8325 11.7808 84.4777 11.7808C85.1617 11.7808 85.4683 11.0097 85.714 10.546C85.4955 9.60929 84.7619 9.01313 84.2717 8.28212C85.138 6.98992 87.1712 6.22438 85.8716 4.84283L85.3019 4.37189C84.092 4.65344 83.7555 5.19196 82.9838 5.96668C82.3786 6.57411 81.3871 7.21739 81.3871 8.28212Z" fill="url(#paint13_linear)"/>
</g>
<defs>
<linearGradient id="paint0_linear" x1="144.457" y1="40.9007" x2="150" y2="40.9057" gradientUnits="userSpaceOnUse">
<stop stop-color="#AE5A00"/>
<stop offset="0.431373" stop-color="#CC6900"/>
<stop offset="1" stop-color="#EA7900"/>
</linearGradient>
<linearGradient id="paint1_linear" x1="96.0161" y1="37.0512" x2="112.5" y2="37.0512" gradientUnits="userSpaceOnUse">
<stop stop-color="#AE5A00"/>
<stop offset="1" stop-color="#EA7900"/>
</linearGradient>
<linearGradient id="paint2_linear" x1="75.139" y1="58.6278" x2="101.433" y2="58.6278" gradientUnits="userSpaceOnUse">
<stop stop-color="#AE5A00"/>
<stop offset="1" stop-color="#EA7900"/>
</linearGradient>
<linearGradient id="paint3_linear" x1="80.5633" y1="34.4381" x2="95.1915" y2="34.4381" gradientUnits="userSpaceOnUse">
<stop stop-color="#AE5A00"/>
<stop offset="1" stop-color="#EA7900"/>
</linearGradient>
<linearGradient id="paint4_linear" x1="79.7386" y1="18.8706" x2="96.4283" y2="18.8706" gradientUnits="userSpaceOnUse">
<stop stop-color="#AE5A00"/>
<stop offset="1" stop-color="#EA7900"/>
</linearGradient>
<linearGradient id="paint5_linear" x1="66.3792" y1="25.6172" x2="80.151" y2="25.6172" gradientUnits="userSpaceOnUse">
<stop stop-color="#AE5A00"/>
<stop offset="1" stop-color="#EA7900"/>
</linearGradient>
<linearGradient id="paint6_linear" x1="64.0794" y1="37.806" x2="79.9447" y2="37.806" gradientUnits="userSpaceOnUse">
<stop stop-color="#AE5A00"/>
<stop offset="1" stop-color="#EA7900"/>
</linearGradient>
<linearGradient id="paint7_linear" x1="95.6042" y1="44.5395" x2="107.143" y2="44.5395" gradientUnits="userSpaceOnUse">
<stop stop-color="#AE5A00"/>
<stop offset="1" stop-color="#EA7900"/>
</linearGradient>
<linearGradient id="paint8_linear" x1="95.506" y1="24.9394" x2="108.585" y2="24.9394" gradientUnits="userSpaceOnUse">
<stop stop-color="#AE5A00"/>
<stop offset="1" stop-color="#EA7900"/>
</linearGradient>
<linearGradient id="paint9_linear" x1="70.194" y1="45.0085" x2="80.769" y2="45.0085" gradientUnits="userSpaceOnUse">
<stop stop-color="#AE5A00"/>
<stop offset="1" stop-color="#EA7900"/>
</linearGradient>
<linearGradient id="paint10_linear" x1="93.7498" y1="7.02264" x2="99.544" y2="7.02264" gradientUnits="userSpaceOnUse">
<stop stop-color="#AE5A00"/>
<stop offset="1" stop-color="#EA7900"/>
</linearGradient>
<linearGradient id="paint11_linear" x1="76.4421" y1="7.17494" x2="82.2115" y2="7.17494" gradientUnits="userSpaceOnUse">
<stop stop-color="#AE5A00"/>
<stop offset="1" stop-color="#EA7900"/>
</linearGradient>
<linearGradient id="paint12_linear" x1="90.1034" y1="8.13021" x2="94.9864" y2="8.13021" gradientUnits="userSpaceOnUse">
<stop stop-color="#AE5A00"/>
<stop offset="1" stop-color="#EA7900"/>
</linearGradient>
<linearGradient id="paint13_linear" x1="81.3871" y1="8.07636" x2="86.2942" y2="8.07636" gradientUnits="userSpaceOnUse">
<stop stop-color="#AE5A00"/>
<stop offset="1" stop-color="#EA7900"/>
</linearGradient>
<clipPath id="clip0">
<rect width="150" height="79.0795" fill="white"/>
</clipPath>
</defs>
</svg>
